ffmpeg version 2023-01-22-git-9d5e66942c-essentials_build-www.gyan.dev Copyright (c) 2000-2023 the FFmpeg developers
  built with gcc 12.2.0 (Rev7, Built by MSYS2 project)
  configuration: --enable-gpl --enable-version3 --enable-static --disable-w32threads --disable-autodetect --enable-fontconfig --enable-iconv --enable-gnutls --enable-libxml2 --enable-gmp --enable-bzlib --enable-lzma --enable-zlib --enable-libsrt --enable-libzmq --enable-avisynth --enable-sdl2 --enable-libwebp --enable-libx264 --enable-libx265 --enable-libxvid --enable-libaom --enable-libopenjpeg --enable-libvpx --enable-mediafoundation --enable-libass --enable-libfreetype --enable-libfribidi --enable-libvidstab --enable-libvmaf --enable-libzimg --enable-amf --enable-cuda-llvm --enable-cuvid --enable-ffnvcodec --enable-nvdec --enable-nvenc --enable-d3d11va --enable-dxva2 --enable-libvpl --enable-libgme --enable-libopenmpt --enable-libopencore-amrwb --enable-libmp3lame --enable-libtheora --enable-libvo-amrwbenc --enable-libgsm --enable-libopencore-amrnb --enable-libopus --enable-libspeex --enable-libvorbis --enable-librubberband
  libavutil      57. 44.100 / 57. 44.100
  libavcodec     59. 56.100 / 59. 56.100
  libavformat    59. 35.100 / 59. 35.100
  libavdevice    59.  8.101 / 59.  8.101
  libavfilter     8. 54.100 /  8. 54.100
  libswscale      6.  8.112 /  6.  8.112
  libswresample   4.  9.100 /  4.  9.100
  libpostproc    56.  7.100 / 56.  7.100
[h264 @ 000001e65b3ece40] non-existing SPS 0 referenced in buffering period
[h264 @ 000001e65b3ece40] non-existing PPS 0 referenced
[h264 @ 000001e65b3ece40] non-existing SPS 0 referenced in buffering period
[h264 @ 000001e65b3ece40] non-existing PPS 0 referenced
[h264 @ 000001e65b3ece40] decode_slice_header error
[h264 @ 000001e65b3ece40] non-existing PPS 0 referenced
[h264 @ 000001e65b3ece40] decode_slice_header error
[h264 @ 000001e65b3ece40] non-existing PPS 0 referenced
[h264 @ 000001e65b3ece40] decode_slice_header error
[h264 @ 000001e65b3ece40] non-existing PPS 0 referenced
[h264 @ 000001e65b3ece40] decode_slice_header error
[h264 @ 000001e65b3ece40] non-existing PPS 0 referenced
[h264 @ 000001e65b3ece40] decode_slice_header error
[h264 @ 000001e65b3ece40] non-existing PPS 0 referenced
[h264 @ 000001e65b3ece40] decode_slice_header error
[h264 @ 000001e65b3ece40] no frame!
[h264 @ 000001e65b3ece40] non-existing SPS 0 referenced in buffering period
[h264 @ 000001e65b3ece40] non-existing PPS 0 referenced
[h264 @ 000001e65b3ece40] non-existing SPS 0 referenced in buffering period
[h264 @ 000001e65b3ece40] non-existing PPS 0 referenced
[h264 @ 000001e65b3ece40] decode_slice_header error
[h264 @ 000001e65b3ece40] non-existing PPS 0 referenced
[h264 @ 000001e65b3ece40] decode_slice_header error
[h264 @ 000001e65b3ece40] non-existing PPS 0 referenced
[h264 @ 000001e65b3ece40] decode_slice_header error
[h264 @ 000001e65b3ece40] non-existing PPS 0 referenced
[h264 @ 000001e65b3ece40] decode_slice_header error
[h264 @ 000001e65b3ece40] non-existing PPS 0 referenced
[h264 @ 000001e65b3ece40] decode_slice_header error
[h264 @ 000001e65b3ece40] non-existing PPS 0 referenced
[h264 @ 000001e65b3ece40] decode_slice_header error
[h264 @ 000001e65b3ece40] no frame!
[h264 @ 000001e65b3ece40] non-existing SPS 0 referenced in buffering period
[h264 @ 000001e65b3ece40] non-existing PPS 0 referenced
[h264 @ 000001e65b3ece40] non-existing SPS 0 referenced in buffering period
[h264 @ 000001e65b3ece40] non-existing PPS 0 referenced
[h264 @ 000001e65b3ece40] decode_slice_header error
[h264 @ 000001e65b3ece40] non-existing PPS 0 referenced
[h264 @ 000001e65b3ece40] decode_slice_header error
[h264 @ 000001e65b3ece40] non-existing PPS 0 referenced
[h264 @ 000001e65b3ece40] decode_slice_header error
[h264 @ 000001e65b3ece40] non-existing PPS 0 referenced
[h264 @ 000001e65b3ece40] decode_slice_header error
[h264 @ 000001e65b3ece40] non-existing PPS 0 referenced
[h264 @ 000001e65b3ece40] decode_slice_header error
[h264 @ 000001e65b3ece40] non-existing PPS 0 referenced
[h264 @ 000001e65b3ece40] decode_slice_header error
[h264 @ 000001e65b3ece40] no frame!
[h264 @ 000001e65b3ece40] non-existing SPS 0 referenced in buffering period
[h264 @ 000001e65b3ece40] non-existing PPS 0 referenced
[h264 @ 000001e65b3ece40] non-existing SPS 0 referenced in buffering period
[h264 @ 000001e65b3ece40] non-existing PPS 0 referenced
[h264 @ 000001e65b3ece40] decode_slice_header error
[h264 @ 000001e65b3ece40] non-existing PPS 0 referenced
[h264 @ 000001e65b3ece40] decode_slice_header error
[h264 @ 000001e65b3ece40] non-existing PPS 0 referenced
[h264 @ 000001e65b3ece40] decode_slice_header error
[h264 @ 000001e65b3ece40] non-existing PPS 0 referenced
[h264 @ 000001e65b3ece40] decode_slice_header error
[h264 @ 000001e65b3ece40] non-existing PPS 0 referenced
[h264 @ 000001e65b3ece40] decode_slice_header error
[h264 @ 000001e65b3ece40] non-existing PPS 0 referenced
[h264 @ 000001e65b3ece40] decode_slice_header error
[h264 @ 000001e65b3ece40] no frame!
[h264 @ 000001e65b3ece40] non-existing SPS 0 referenced in buffering period
[h264 @ 000001e65b3ece40] non-existing PPS 0 referenced
[h264 @ 000001e65b3ece40] non-existing SPS 0 referenced in buffering period
[h264 @ 000001e65b3ece40] non-existing PPS 0 referenced
[h264 @ 000001e65b3ece40] decode_slice_header error
[h264 @ 000001e65b3ece40] non-existing PPS 0 referenced
[h264 @ 000001e65b3ece40] decode_slice_header error
[h264 @ 000001e65b3ece40] non-existing PPS 0 referenced
[h264 @ 000001e65b3ece40] decode_slice_header error
[h264 @ 000001e65b3ece40] non-existing PPS 0 referenced
[h264 @ 000001e65b3ece40] decode_slice_header error
[h264 @ 000001e65b3ece40] non-existing PPS 0 referenced
[h264 @ 000001e65b3ece40] decode_slice_header error
[h264 @ 000001e65b3ece40] non-existing PPS 0 referenced
[h264 @ 000001e65b3ece40] decode_slice_header error
[h264 @ 000001e65b3ece40] no frame!
[h264 @ 000001e65b3ece40] mmco: unref short failure
[mpegts @ 000001e65b3f0180] PES packet size mismatch
[mpegts @ 000001e65b3f0180] Packet corrupt (stream = 1, dts = 1937235091).
[mpegts @ 000001e65b3f0180] PES packet size mismatch
[mpegts @ 000001e65b3f0180] Packet corrupt (stream = 2, dts = 1937234861).
[mpegts @ 000001e65b3f0180] PES packet size mismatch
[mpegts @ 000001e65b3f0180] Packet corrupt (stream = 3, dts = 1937234861).
[mpegts @ 000001e65b3f0180] Could not find codec parameters for stream 6 (Unknown: none ([5][0][0][0] / 0x0005)): unknown codec
Consider increasing the value for the 'analyzeduration' (0) and 'probesize' (5000000) options
Input #0, mpegts, from 'f:/FILMS - HD & FULL HD/LEGENDE.ts':
  Duration: 01:43:09.49, start: 15336.479789, bitrate: 7864 kb/s
  Program 1281 
  Stream #0:0[0x78]: Video: h264 (High) ([27][0][0][0] / 0x001B), yuv420p(tv, bt709, top first), 1920x1080 [SAR 1:1 DAR 16:9], 25 fps, 25 tbr, 90k tbn
  Stream #0:1[0x82](fra): Audio: eac3 ([6][0][0][0] / 0x0006), 48000 Hz, stereo, fltp, 128 kb/s
  Stream #0:2[0x83](qaa): Audio: eac3 ([6][0][0][0] / 0x0006), 48000 Hz, stereo, fltp, 128 kb/s
  Stream #0:3[0x84](fra): Audio: eac3 ([6][0][0][0] / 0x0006), 48000 Hz, stereo, fltp, 128 kb/s (visual impaired) (descriptions)
  Stream #0:4[0x8c](fra): Subtitle: dvb_subtitle ([6][0][0][0] / 0x0006) (hearing impaired)
  Stream #0:5[0x8d](fra): Subtitle: dvb_subtitle ([6][0][0][0] / 0x0006)
  Stream #0:6[0xaa]: Unknown: none ([5][0][0][0] / 0x0005)
  Program 1282 
  Program 1283 
At least one output file must be specified
